<svg width="24" height="24" viewBox="0 0 24 24" fill="none" xmlns="http://www.w3.org/2000/svg">
<path d="M9.95228 17.2887C11.0042 17.2887 11.857 18.1195 11.857 19.1443C11.857 20.1692 11.0042 21 9.95228 21C8.90032 21 8.04754 20.1692 8.04754 19.1443C8.04754 18.1195 8.90032 17.2887 9.95228 17.2887ZM17.5712 17.2887C18.6232 17.2887 19.476 18.1195 19.476 19.1443C19.476 20.1692 18.6232 21 17.5712 21C16.5193 21 15.6665 20.1692 15.6665 19.1443C15.6665 18.1195 16.5193 17.2887 17.5712 17.2887ZM9.95228 18.4021C9.5315 18.4021 9.19039 18.7344 9.19039 19.1443C9.19039 19.5543 9.5315 19.8866 9.95228 19.8866C10.3731 19.8866 10.7142 19.5543 10.7142 19.1443C10.7142 18.7344 10.3731 18.4021 9.95228 18.4021ZM17.5712 18.4021C17.1505 18.4021 16.8094 18.7344 16.8094 19.1443C16.8094 19.5543 17.1505 19.8866 17.5712 19.8866C17.992 19.8866 18.3331 19.5543 18.3331 19.1443C18.3331 18.7344 17.992 18.4021 17.5712 18.4021ZM1.57142 3H4.23806C4.46835 3 4.67422 3.13438 4.76342 3.33768L4.78189 3.38579L8.46363 14.5052H19.4404L21.6443 7.82474H9.57134C9.25575 7.82474 8.99991 7.5755 8.99991 7.26804C8.99991 6.97867 9.22653 6.74086 9.5163 6.71389L9.57134 6.71134H22.4282C22.7988 6.71134 23.0666 7.04775 22.9854 7.3915L22.9722 7.43839L20.401 15.2322C20.3304 15.446 20.1358 15.5959 19.9097 15.6162L19.8569 15.6186H8.04754C7.81726 15.6186 7.61138 15.4842 7.52219 15.2809L7.50372 15.2328L3.82197 4.1134H1.57142C1.25583 4.1134 1 3.86416 1 3.5567C1 3.26733 1.22662 3.02952 1.51639 3.00255L1.57142 3H4.23806H1.57142Z" fill="white"/>
</svg>
